<?xml version="1.0" encoding="UTF-8"?>
<testng-results skipped="0" failed="0" ignored="2" total="6" passed="4">
  <reporter-output>
  </reporter-output>
  <suite name="App Regression Tests" duration-ms="65745" started-at="2019-02-11T05:00:52Z" finished-at="2019-02-11T05:01:58Z">
    <groups>
    </groups>
    <test name="Regression" duration-ms="65745" started-at="2019-02-11T05:00:52Z" finished-at="2019-02-11T05:01:58Z">
      <class name="tests.AppFunctionality">
        <test-method status="PASS" signature="verifySubcommitteeMembers()[pri:3, instance:tests.AppFunctionality@55b699ef]" name="verifySubcommitteeMembers" duration-ms="32263" started-at="2019-02-11T05:01:01Z" finished-at="2019-02-11T05:01:33Z">
          <reporter-output>
          </reporter-output>
        </test-method> <!-- verifySubcommitteeMembers -->
        <test-method status="PASS" signature="setupTestLogging(java.lang.reflect.Method)[pri:0, instance:tests.AppFunctionality@55b699ef]" name="setupTestLogging" is-config="true" duration-ms="0" started-at="2019-02-11T05:01:01Z" finished-at="2019-02-11T05:01:01Z">
          <params>
            <param index="0">
              <value>
                <![CDATA[public void tests.AppFunctionality.verifySubcommitteeMembers()]]>
              </value>
            </param>
          </params>
          <reporter-output>
          </reporter-output>
        </test-method> <!-- setupTestLogging -->
        <test-method status="PASS" signature="setupTestLogging(java.lang.reflect.Method)[pri:0, instance:tests.AppFunctionality@55b699ef]" name="setupTestLogging" is-config="true" duration-ms="0" started-at="2019-02-11T05:01:33Z" finished-at="2019-02-11T05:01:33Z">
          <params>
            <param index="0">
              <value>
                <![CDATA[public void tests.AppFunctionality.verifyDistrict30sAddressInMaps()]]>
              </value>
            </param>
          </params>
          <reporter-output>
          </reporter-output>
        </test-method> <!-- setupTestLogging -->
        <test-method status="PASS" signature="verifyDistrict30sAddressInMaps()[pri:4, instance:tests.AppFunctionality@55b699ef]" name="verifyDistrict30sAddressInMaps" duration-ms="24760" started-at="2019-02-11T05:01:33Z" finished-at="2019-02-11T05:01:58Z">
          <reporter-output>
          </reporter-output>
        </test-method> <!-- verifyDistrict30sAddressInMaps -->
      </class> <!-- tests.AppFunctionality -->
      <class name="tests.AppUI">
        <test-method status="PASS" signature="initialize()[pri:0, instance:tests.AppUI@2a3b5b47]" name="initialize" is-config="true" duration-ms="10060" started-at="2019-02-11T05:00:42Z" finished-at="2019-02-11T05:00:52Z">
          <reporter-output>
          </reporter-output>
        </test-method> <!-- initialize -->
        <test-method status="PASS" signature="setupTestLogging(java.lang.reflect.Method)[pri:0, instance:tests.AppUI@2a3b5b47]" name="setupTestLogging" is-config="true" duration-ms="31" started-at="2019-02-11T05:00:52Z" finished-at="2019-02-11T05:00:52Z">
          <params>
            <param index="0">
              <value>
                <![CDATA[public void tests.AppUI.verifyAboutUI()]]>
              </value>
            </param>
          </params>
          <reporter-output>
          </reporter-output>
        </test-method> <!-- setupTestLogging -->
        <test-method status="PASS" signature="verifyAboutUI()[pri:1, instance:tests.AppUI@2a3b5b47]" name="verifyAboutUI" duration-ms="2972" started-at="2019-02-11T05:00:52Z" finished-at="2019-02-11T05:00:55Z">
          <reporter-output>
          </reporter-output>
        </test-method> <!-- verifyAboutUI -->
        <test-method status="PASS" signature="setupTestLogging(java.lang.reflect.Method)[pri:0, instance:tests.AppUI@2a3b5b47]" name="setupTestLogging" is-config="true" duration-ms="1" started-at="2019-02-11T05:00:55Z" finished-at="2019-02-11T05:00:55Z">
          <params>
            <param index="0">
              <value>
                <![CDATA[public void tests.AppUI.verifyStatePageUI()]]>
              </value>
            </param>
          </params>
          <reporter-output>
          </reporter-output>
        </test-method> <!-- setupTestLogging -->
        <test-method status="PASS" signature="verifyStatePageUI()[pri:2, instance:tests.AppUI@2a3b5b47]" name="verifyStatePageUI" duration-ms="5460" started-at="2019-02-11T05:00:55Z" finished-at="2019-02-11T05:01:01Z">
          <reporter-output>
          </reporter-output>
        </test-method> <!-- verifyStatePageUI -->
        <test-method status="PASS" signature="closeBrowser()[pri:0, instance:tests.AppUI@2a3b5b47]" name="closeBrowser" is-config="true" duration-ms="5" started-at="2019-02-11T05:01:58Z" finished-at="2019-02-11T05:01:58Z">
          <reporter-output>
          </reporter-output>
        </test-method> <!-- closeBrowser -->
      </class> <!-- tests.AppUI -->
    </test> <!-- Regression -->
  </suite> <!-- App Regression Tests -->
</testng-results>
